{
  "name": "repbotapi",
  "version": "1.0.0",
  "description": "Discord Rep Bot API",
  "sampleUrl": false,
  "defaultVersion": "0.0.0",
  "apidoc": "0.3.0",
  "generator": {
    "name": "apidoc",
    "time": "2017-04-26T13:09:35.012Z",
    "url": "http://apidocjs.com",
    "version": "0.17.5"
  }
}
